Read sequences from a fasta file. — read_fasta • rutil
…
In most situations, you won't have a file like that, unless you
deliberately create one.

    Test files

test1.fasta big file with linebreak.

test12.fasta same file without.

test2.fasta big aligned file with linebreak.

    Examples

system.file('extdata', 'example.fasta', package = 'rutil') |> read_fasta()
#> # A tibble: 62 × 2
#>    name                            seq                                          
#>    <chr>                           <chr>                                        
#>  1 Acanthisitta_chloris_Jarvis     MVKLGSNLNDKNNKQPSNEDGFQTVPLITPLEVNHLQFPAPEKV…
#>  2 Amazona_aestiva_protein         MLAQGKGPQAQCSSQCSSHDASQSHCPPQLPASAGPRHHPAPPH…
#>  3 Anas_platyrhynchos_Jarvis       MVKLGSNLNDKNSKPPSGEDGFQTVPLITPLEVNHLQFPAPEKV…
#>  4 Anser_cygnoides_protein         MCEVSLGVACCVARNLGVKPRKPIRQGKVSQTGQKSSSHYPCDN…
#>  5 Antrostomus_carolinensis_Jarvis QVIVKTRTEYQPDQKNKGKLRVPKIAEFTVSFTDGVTERLKVTI…
#>  6 Apaloderma_vittatum_Jarvis      MVKLGSNLSDKSSKQPPNEDGFQTVPLITPLEVNHLQFPAPEKV…
#>  7 Aptenodytes_forsteri_Jarvis     MVKLGSNLNDKNNKQPSNEDGFQTVPLITPLEVNHLQFPAPEKV…
#>  8 Apteryx_australis_protein       VTILISLALAFLACIVFLVVYKAFTYDHSCPDGFVYKHKRCIPA…
#>  9 Aquila_chrysaetos_protein       MVKLGSNLNDKNSKQPSNEDGFQTVPLITPLEVNHLQFPAPEKV…
#> 10 Balearica_regulorum_Jarvis      MVKLGSNLNDKNNKQPSNEDGFQTVPLITPLEVNHLQFPAPEKV…
#> # … with 52 more rows

system.file('extdata', 'aligned-multiline.fasta', package = 'rutil') |> read_fasta()
#> # A tibble: 61 × 2
#>    name                            seq                                          
#>    <chr>                           <chr>                                        
#>  1 Acanthisitta_chloris_Jarvis     --------------------------------------------…
#>  2 Amazona_aestiva_protein         MRFWGGGWTLRXT-SEMGNXS----------VQRMRE-------…
#>  3 Anas_platyrhynchos_Jarvis       --------------------------------------------…
#>  4 Anser_cygnoides_protein         --------------------------------------------…
#>  5 Antrostomus_carolinensis_Jarvis --------------------------------------------…
#>  6 Apaloderma_vittatum_Jarvis      --------------------------------------------…
#>  7 Aptenodytes_forsteri_Jarvis     --------------------------------------------…
#>  8 Apteryx_australis_protein       --------------------------------------------…
#>  9 Aquila_chrysaetos_protein       --------------------------------------------…
#> 10 Balearica_regulorum_Jarvis      --------------------------------------------…
#> # … with 51 more rows

system.file('extdata', 'aligned-multiline.fasta', package = 'rutil') |> read_fasta(unalign = TRUE)
#> # A tibble: 61 × 2
#>    name                            seq                                          
#>    <chr>                           <chr>                                        
#>  1 Acanthisitta_chloris_Jarvis     AGVLALWALTTHGMYIQDFWRTWLRGLRFFLAVGIFFCVVALVA…
#>  2 Amazona_aestiva_protein         MRFWGGGWTLRXTSEMGNXSVQRMREGPGGVLALWALITHVMYV…
#>  3 Anas_platyrhynchos_Jarvis       RAGVLALWALITHVMYVQDYWRTWLKGLRFFLFIGILFSALSVV…
#>  4 Anser_cygnoides_protein         MYVQDYWRTWLKGLRFFLFIGILFSALSVVGFCTFLVLAITKHQ…
#>  5 Antrostomus_carolinensis_Jarvis AGVLALWALITHVMYVQDYWRTWLKGLRFFLFIGILFSALSVVG…
#>  6 Apaloderma_vittatum_Jarvis      RAGVLALWALTTHVMYVQDYWRTWLKGLRFFLFIGILFSALSAV…
#>  7 Aptenodytes_forsteri_Jarvis     AGVLALWALITHVMYVQDYWRTWLKGLRFFLFIGILFSALSVVG…
#>  8 Apteryx_australis_protein       MHLSFPLESDYWRTWLKGLRFFLFIGILFSALSVVGFCTFLVLA…
#>  9 Aquila_chrysaetos_protein       MFSGCIQPFPEWLLMFLCVLALWALITHVMYVQDYWRTWLKGLR…
#> 10 Balearica_regulorum_Jarvis      AGVLALWALITHVMYVQDYWRTWLKGLRFFLFIGILFSALSVVG…
#> # … with 51 more rows
…
