Read sequences from a fasta file. — read_fasta • biozhuoer
…
    In most situations, you won't have a file like that, unless you
deliberately create one.

    Test files

test1.fasta big file with linebreak.

test12.fasta same file without.

test2.fasta big aligned file with linebreak.

    Examples

system.file('extdata', 'example.fasta', package = 'biozhuoer') %>% read_fasta();
#> # A tibble: 62 x 2
#>    name                    seq                                                  
#>    <chr>                   <chr>                                                
#>  1 Acanthisitta_chloris_J… MVKLGSNLNDKNNKQPSNEDGFQTVPLITPLEVNHLQFPAPEKVIVKTRTEY…
#>  2 Amazona_aestiva_protein MLAQGKGPQAQCSSQCSSHDASQSHCPPQLPASAGPRHHPAPPHMAPGRRQG…
#>  3 Anas_platyrhynchos_Jar… MVKLGSNLNDKNSKPPSGEDGFQTVPLITPLEVNHLQFPAPEKVIVKTRTEY…
#>  4 Anser_cygnoides_protein MCEVSLGVACCVARNLGVKPRKPIRQGKVSQTGQKSSSHYPCDNDRLAGFRS…
#>  5 Antrostomus_carolinens… QVIVKTRTEYQPDQKNKGKLRVPKIAEFTVSFTDGVTERLKVTILISLALAF…
#>  6 Apaloderma_vittatum_Ja… MVKLGSNLSDKSSKQPPNEDGFQTVPLITPLEVNHLQFPAPEKVIVKTRTEY…
#>  7 Aptenodytes_forsteri_J… MVKLGSNLNDKNNKQPSNEDGFQTVPLITPLEVNHLQFPAPEKVIVKTRTEY…
#>  8 Apteryx_australis_prot… VTILISLALAFLACIVFLVVYKAFTYDHSCPDGFVYKHKRCIPASLDAYYSA…
#>  9 Aquila_chrysaetos_prot… MVKLGSNLNDKNSKQPSNEDGFQTVPLITPLEVNHLQFPAPEKVIVKTRTEY…
#> 10 Balearica_regulorum_Ja… MVKLGSNLNDKNNKQPSNEDGFQTVPLITPLEVNHLQFPAPEKVIVKTRTEY…
#> # ... with 52 more rows

system.file('extdata', 'aligned-multiline.fasta', package = 'biozhuoer') %>% read_fasta();
#> # A tibble: 61 x 2
#>    name                    seq                                                  
#>    <chr>                   <chr>                                                
#>  1 Acanthisitta_chloris_J… -----------------------------------------------AG---…
#>  2 Amazona_aestiva_protein MRFWGGGWTLRXT-SEMGNXS----------VQRMRE--------GPGG---…
#>  3 Anas_platyrhynchos_Jar… ----------------------------------------------RAG---…
#>  4 Anser_cygnoides_protein ----------------------------------------------------…
#>  5 Antrostomus_carolinens… -----------------------------------------------AG---…
#>  6 Apaloderma_vittatum_Ja… ----------------------------------------------RAG---…
#>  7 Aptenodytes_forsteri_J… -----------------------------------------------AG---…
#>  8 Apteryx_australis_prot… ----------------------------------------------------…
#>  9 Aquila_chrysaetos_prot… ---------------------------------------------MFSGCIQ…
#> 10 Balearica_regulorum_Ja… -----------------------------------------------AG---…
#> # ... with 51 more rows

system.file('extdata', 'aligned-multiline.fasta', package = 'biozhuoer') %>% read_fasta(unalign = TRUE);
#> # A tibble: 61 x 2
#>    name                    seq                                                  
#>    <chr>                   <chr>                                                
#>  1 Acanthisitta_chloris_J… AGVLALWALTTHGMYIQDFWRTWLRGLRFFLAVGIFFCVVALVAFCTFLALA…
#>  2 Amazona_aestiva_protein MRFWGGGWTLRXTSEMGNXSVQRMREGPGGVLALWALITHVMYVQDYWRTWL…
#>  3 Anas_platyrhynchos_Jar… RAGVLALWALITHVMYVQDYWRTWLKGLRFFLFIGILFSALSVVGICTFLVL…
#>  4 Anser_cygnoides_protein MYVQDYWRTWLKGLRFFLFIGILFSALSVVGFCTFLVLAITKHQSLTDPRSY…
#>  5 Antrostomus_carolinens… AGVLALWALITHVMYVQDYWRTWLKGLRFFLFIGILFSALSVVGFCTFLVLA…
#>  6 Apaloderma_vittatum_Ja… RAGVLALWALTTHVMYVQDYWRTWLKGLRFFLFIGILFSALSAVGFCAFLVL…
#>  7 Aptenodytes_forsteri_J… AGVLALWALITHVMYVQDYWRTWLKGLRFFLFIGILFSALSVVGFCTFLVLA…
#>  8 Apteryx_australis_prot… MHLSFPLESDYWRTWLKGLRFFLFIGILFSALSVVGFCTFLVLAITKHQSLT…
#>  9 Aquila_chrysaetos_prot… MFSGCIQPFPEWLLMFLCVLALWALITHVMYVQDYWRTWLKGLRFFLFIGIL…
#> 10 Balearica_regulorum_Ja… AGVLALWALITHVMYVQDYWRTWLKGLRFFLFIGILFSALSVVGFCTFLVLA…
#> # ... with 51 more rows
…
